<?xml version="1.0" encoding="utf-8"?>
<!-- Generator: Adobe Illustrator 21.0.0, SVG Export Plug-In . SVG Version: 6.00 Build 0)  -->
<svg version="1.1" id="Слой_1" xmlns="http://www.w3.org/2000/svg" xmlns:xlink="http://www.w3.org/1999/xlink" x="0px" y="0px"
	 viewBox="32 39 77 43" style="enable-background:new 0 0 148 122;" xml:space="preserve">
<style type="text/css">
	.st0{clip-path:url(#SVGID_2_);fill:#00A8B8;}
</style>
<g>
	<g>
		<defs>
			<rect id="SVGID_1_" x="32" y="37" width="78" height="46"/>
		</defs>
		<clipPath id="SVGID_2_">
			<use xlink:href="#SVGID_1_"  style="overflow:visible;"/>
		</clipPath>
		<path class="st0" d="M106,73.9c-2.3-2.8-5-5.1-7.6-7.6c-2.3-2.3-2.5-3.6-0.6-6.2c2-2.8,4.2-5.6,6.2-8.4c1.9-2.6,3.9-5.3,4.9-8.4
			c0.6-2,0.1-2.9-2-3.3c-0.4-0.1-0.7-0.1-1.1-0.1l-12.2,0c-1.5,0-2.3,0.6-2.9,2c-0.7,1.8-1.5,3.6-2.3,5.4c-1.9,3.9-4.1,7.8-7.2,11
			c-0.7,0.7-1.4,1.6-2.5,1.2c-1.4-0.5-1.8-2.8-1.8-3.6l0-14.1c-0.3-2-0.7-2.9-2.7-3.3l-12.7,0c-1.7,0-2.5,0.7-3.4,1.7
			c-0.5,0.6-0.7,1,0.4,1.2c2.1,0.4,3.3,1.8,3.6,3.9c0.5,3.4,0.5,6.8,0.2,10.2c-0.1,1-0.3,2-0.6,2.9c-0.6,1.5-1.6,1.8-2.9,0.9
			c-1.2-0.8-2-2-2.8-3.1c-3-4.3-5.5-8.9-7.5-13.8c-0.6-1.4-1.6-2.3-3.1-2.3c-3.7-0.1-7.3-0.1-11,0c-2.2,0-2.9,1.1-2,3.1
			c4,8.9,8.4,17.5,14.3,25.4c3,4,6.4,7.6,10.8,10.1c5,2.9,10.4,3.7,16.1,3.5c2.7-0.1,3.5-0.8,3.6-3.5c0.1-1.8,0.3-3.6,1.2-5.3
			c0.9-1.6,2.2-1.9,3.7-0.9c0.8,0.5,1.4,1.1,2,1.8c1.5,1.6,2.9,3.3,4.5,4.9c1.9,2,4.3,3.2,7.2,2.9H107c1.8-0.1,2.8-2.3,1.7-4.4
			C108,76.4,107,75.2,106,73.9L106,73.9z M106,73.9"/>
	</g>
</g>
</svg>
